…
``` r
demo_cdm <- cdm(demo_post, horizon = 3)
summary(demo_cdm)
#> # A tibble: 36 × 10
#>    model  object_type variable shock horizon     mean   median     sd    lower
#>    <chr>  <chr>       <chr>    <chr>   <dbl>    <dbl>    <dbl>  <dbl>    <dbl>
#>  1 model1 cdm         ttr      ttr         0  0.0531   0.0291  0.0470  0.0284 
#>  2 model1 cdm         ttr      ttr         1  0.200    0.0565  0.304   0.0551 
#>  3 model1 cdm         ttr      ttr         2  0.417    0.0833  0.721   0.0811 
#>  4 model1 cdm         ttr      ttr         3  0.716    0.110   1.33    0.107  
#>  5 model1 cdm         ttr      gs          0  0        0       0       0      
#>  6 model1 cdm         ttr      gs          1  0.0902  -0.00483 0.195  -0.00598
#>  7 model1 cdm         ttr      gs          2  0.254   -0.0134  0.550  -0.0173 
#>  8 model1 cdm         ttr      gs          3  0.502   -0.0249  1.09   -0.0335 
#>  9 model1 cdm         ttr      gdp         0  0        0       0       0      
#> 10 model1 cdm         ttr      gdp         1 -0.00649  0.00201 0.0156 -0.0159 
#> # ℹ 26 more rows
#> # ℹ 1 more variable: upper <dbl>
…
