Getting Started with bsvarPost • bsvarPost
…
The gs shock column shows how a one-standard-deviation
increase in government spending affects ttr,
gs, and gdp over 20 quarters.

Cumulative dynamic multipliers

Cumulative dynamic multipliers (CDMs) integrate the impulse responses
over the horizon, making them the natural quantity for fiscal multiplier
analysis.

cdm_obj <- cdm(post, horizon = 20)
summary(cdm_obj)
#> # A tibble: 189 × 10
#>    model  object_type variable shock horizon   mean median      sd  lower  upper
#>    <chr>  <chr>       <chr>    <chr>   <dbl>  <dbl>  <dbl>   <dbl>  <dbl>  <dbl>
#>  1 model1 cdm         ttr      ttr         0 0.0291 0.0286 0.00666 0.0265 0.0308
#>  2 model1 cdm         ttr      ttr         1 0.0551 0.0553 0.00581 0.0514 0.0595
#>  3 model1 cdm         ttr      ttr         2 0.0778 0.0804 0.0404  0.0746 0.0872
#>  4 model1 cdm         ttr      ttr         3 0.0967 0.104  0.105   0.0957 0.113 
#>  5 model1 cdm         ttr      ttr         4 0.111  0.125  0.206   0.115  0.138 
#>  6 model1 cdm         ttr      ttr         5 0.121  0.145  0.352   0.132  0.163 
#>  7 model1 cdm         ttr      ttr         6 0.126  0.165  0.555   0.146  0.187 
#>  8 model1 cdm         ttr      ttr         7 0.124  0.183  0.828   0.160  0.211 
#>  9 model1 cdm         ttr      ttr         8 0.115  0.199  1.19    0.173  0.235 
#> 10 model1 cdm         ttr      ttr         9 0.0960 0.213  1.65    0.184  0.257 
#> # ℹ 179 more rows
…
