…
## Representative-model summaries

Pointwise posterior medians may not correspond to any one coherent
structural draw.
[`median_target_irf()`](https://davidzenz.github.io/bsvarPost/reference/representative_irf.md)
finds the stored draw whose IRF matrix is closest (in L2 distance) to
the posterior median. The result is a single self-consistent model that
typifies the posterior center.

``` r
rep_irf <- median_target_irf(post, horizon = 20)
summary(rep_irf)
#> # A tibble: 189 × 13
#>    model  object_type variable shock horizon   mean median    sd  lower  upper
#>    <chr>  <chr>       <chr>    <chr>   <dbl>  <dbl>  <dbl> <dbl>  <dbl>  <dbl>
#>  1 model1 irf         ttr      ttr         0 0.0296 0.0296    NA 0.0296 0.0296
#>  2 model1 irf         ttr      ttr         1 0.0277 0.0277    NA 0.0277 0.0277
#>  3 model1 irf         ttr      ttr         2 0.0260 0.0260    NA 0.0260 0.0260
#>  4 model1 irf         ttr      ttr         3 0.0243 0.0243    NA 0.0243 0.0243
#>  5 model1 irf         ttr      ttr         4 0.0227 0.0227    NA 0.0227 0.0227
#>  6 model1 irf         ttr      ttr         5 0.0212 0.0212    NA 0.0212 0.0212
#>  7 model1 irf         ttr      ttr         6 0.0198 0.0198    NA 0.0198 0.0198
#>  8 model1 irf         ttr      ttr         7 0.0185 0.0185    NA 0.0185 0.0185
#>  9 model1 irf         ttr      ttr         8 0.0173 0.0173    NA 0.0173 0.0173
#> 10 model1 irf         ttr      ttr         9 0.0161 0.0161    NA 0.0161 0.0161
#> # ℹ 179 more rows
#> # ℹ 3 more variables: draw_index <int>, method <chr>, score <dbl>
```
…
